<?xml version="1.0" encoding="utf-8"?>
<!-- Generator: Adobe Illustrator 16.0.0, SVG Export Plug-In . SVG Version: 6.00 Build 0)  -->
<!DOCTYPE svg PUBLIC "-//W3C//DTD SVG 1.1//EN" "http://www.w3.org/Graphics/SVG/1.1/DTD/svg11.dtd">
<svg version="1.1" xmlns="http://www.w3.org/2000/svg" xmlns:xlink="http://www.w3.org/1999/xlink" x="0px" y="0px" width="223.5px"
	 height="198.5px" viewBox="0 0 223.5 198.5" enable-background="new 0 0 223.5 198.5" xml:space="preserve">
<g id="Layer_1">
	<rect x="2.5" y="0.5" fill="#CCCCCC" stroke="#000000" stroke-miterlimit="10" width="220" height="196"/>
	<rect x="159.5" y="16.5" fill="#FFFFFF" stroke="#000000" stroke-miterlimit="10" width="48" height="51"/>
	<rect x="88.5" y="16.5" fill="#FFFFFF" stroke="#000000" stroke-miterlimit="10" width="51" height="51"/>
	<rect x="19.5" y="16.5" fill="#FFFFFF" stroke="#000000" stroke-miterlimit="10" width="53" height="51"/>
	<rect x="19.5" y="84.5" fill="#FFFFFF" stroke="#000000" stroke-miterlimit="10" width="188" height="99"/>
</g>
<g id="Layer_2" display="none">
	<rect x="2.5" y="0.5" display="inline" fill="#CCCCCC" stroke="#000000" stroke-miterlimit="10" width="220" height="196"/>
	<rect x="120.5" y="16.5" display="inline" fill="#FFFFFF" stroke="#000000" stroke-miterlimit="10" width="35" height="164"/>
	<rect x="69.5" y="16.5" display="inline" fill="#FFFFFF" stroke="#000000" stroke-miterlimit="10" width="35" height="164"/>
	<rect x="18.5" y="16.5" display="inline" fill="#FFFFFF" stroke="#000000" stroke-miterlimit="10" width="35" height="164"/>
	<rect x="171.5" y="16.5" display="inline" fill="#FFFFFF" stroke="#000000" stroke-miterlimit="10" width="35" height="164"/>
</g>
<g id="Layer_4" display="none">
	<rect x="2.5" y="-0.5" display="inline" fill="#CCCCCC" stroke="#000000" stroke-miterlimit="10" width="220" height="196"/>
	<rect x="123.5" y="15.5" display="inline" fill="#FFFFFF" stroke="#000000" stroke-miterlimit="10" width="80" height="73"/>
	<rect x="18.5" y="15.5" display="inline" fill="#FFFFFF" stroke="#000000" stroke-miterlimit="10" width="86" height="73"/>
	<rect x="123.5" y="106.5" display="inline" fill="#FFFFFF" stroke="#000000" stroke-miterlimit="10" width="80" height="73"/>
	<rect x="18.5" y="106.5" display="inline" fill="#FFFFFF" stroke="#000000" stroke-miterlimit="10" width="86" height="73"/>
</g>
<g id="Layer_5">
	<rect x="1.5" y="-0.5" fill="#CCCCCC" stroke="#000000" stroke-miterlimit="10" width="221" height="197"/>
	<rect x="17.5" y="15.5" fill="#FFFFFF" stroke="#000000" stroke-miterlimit="10" width="86" height="43"/>
	<rect x="17.5" y="74.5" fill="#FFFFFF" stroke="#000000" stroke-miterlimit="10" width="189" height="44"/>
	<rect x="17.5" y="134.5" fill="#FFFFFF" stroke="#000000" stroke-miterlimit="10" width="189" height="43"/>
	<rect x="120.5" y="15.5" fill="#FFFFFF" stroke="#000000" stroke-miterlimit="10" width="86" height="43"/>
</g>
<g id="Layer_3">
	<text transform="matrix(1 0 0 1 35 59)" display="none" font-family="'MyriadPro-Regular'" font-size="48">1</text>
	<text transform="matrix(1 0 0 1 101 58)" display="none" font-family="'MyriadPro-Regular'" font-size="48">2</text>
	<text transform="matrix(1 0 0 1 171 58)" display="none" font-family="'MyriadPro-Regular'" font-size="48">3</text>
	<text transform="matrix(1 0 0 1 101 148)" display="none" font-family="'MyriadPro-Regular'" font-size="48">4</text>
	<text transform="matrix(1 0 0 1 23 112.5)" display="none" font-family="'MyriadPro-Regular'" font-size="48">1</text>
	<text transform="matrix(1 0 0 1 75 112.5)" display="none" font-family="'MyriadPro-Regular'" font-size="48">2</text>
	<text transform="matrix(1 0 0 1 126 112.5)" display="none" font-family="'MyriadPro-Regular'" font-size="48">3</text>
	<text transform="matrix(1 0 0 1 177 112.5)" display="none" font-family="'MyriadPro-Regular'" font-size="48">4</text>
	<text transform="matrix(1 0 0 1 50 53.5)" font-family="'MyriadPro-Regular'" font-size="48">1</text>
	<text transform="matrix(1 0 0 1 151 53.5)" font-family="'MyriadPro-Regular'" font-size="48">2</text>
	<text transform="matrix(1 0 0 1 99.5 112.5)" font-family="'MyriadPro-Regular'" font-size="48">3</text>
	<text transform="matrix(1 0 0 1 99.5 172.5)" font-family="'MyriadPro-Regular'" font-size="48">4</text>
</g>
</svg>
