<?xml version="1.0" encoding="utf-8"?>
<!-- Generator: Adobe Illustrator 16.0.0, SVG Export Plug-In . SVG Version: 6.00 Build 0)  -->
<!DOCTYPE svg PUBLIC "-//W3C//DTD SVG 1.1//EN" "http://www.w3.org/Graphics/SVG/1.1/DTD/svg11.dtd">
<svg version="1.1" xmlns="http://www.w3.org/2000/svg" xmlns:xlink="http://www.w3.org/1999/xlink" x="0px" y="0px"
	 width="82.125px" height="74.125px" viewBox="0 0 82.125 74.125" enable-background="new 0 0 82.125 74.125" xml:space="preserve">
<g id="Layer_1" display="none">
	<g id="_x31_" display="inline">
		<rect x="0.5" y="0.5" fill="#CCCCCC" stroke="#000000" stroke-miterlimit="10" width="81" height="73"/>
		<rect x="6.5" y="5.5" fill="#FFFFFF" stroke="#000000" stroke-miterlimit="10" width="69" height="63"/>
	</g>
</g>
<g id="_x32_" display="none">
	<g id="a">
		<rect x="0.5" y="0.5" display="inline" fill="#CCCCCC" stroke="#000000" stroke-miterlimit="10" width="81" height="73"/>
		<rect x="6.5" y="6.5" display="inline" fill="#FFFFFF" stroke="#000000" stroke-miterlimit="10" width="69" height="27"/>
		<rect x="6.5" y="39.5" display="inline" fill="#FFFFFF" stroke="#000000" stroke-miterlimit="10" width="69" height="29"/>
	</g>
	<g id="b" display="inline">
		<rect x="0.5" y="0.5" fill="#CCCCCC" stroke="#000000" stroke-miterlimit="10" width="81" height="73"/>
		<rect x="6.5" y="5.5" fill="#FFFFFF" stroke="#000000" stroke-miterlimit="10" width="32" height="63"/>
		<rect x="44.5" y="5.5" fill="#FFFFFF" stroke="#000000" stroke-miterlimit="10" width="32" height="63"/>
	</g>
</g>
<g id="_x33_" display="none">
	<g id="a_1_">
		<rect x="-0.5" y="0.5" display="inline" fill="#CCCCCC" stroke="#000000" stroke-miterlimit="10" width="82" height="73"/>
		<rect x="40.5" y="5.5" display="inline" fill="#FFFFFF" stroke="#000000" stroke-miterlimit="10" width="35" height="63"/>
		<rect x="5.5" y="5.5" display="inline" fill="#FFFFFF" stroke="#000000" stroke-miterlimit="10" width="29" height="29"/>
		<rect x="5.5" y="40.5" display="inline" fill="#FFFFFF" stroke="#000000" stroke-miterlimit="10" width="29" height="28"/>
	</g>
	<g id="b_1_">
		<rect x="0.5" y="0.5" display="inline" fill="#CCCCCC" stroke="#000000" stroke-miterlimit="10" width="81" height="73"/>
		<rect x="6.5" y="5.5" display="inline" fill="#FFFFFF" stroke="#000000" stroke-miterlimit="10" width="34" height="63"/>
		<rect x="46.5" y="39.5" display="inline" fill="#FFFFFF" stroke="#000000" stroke-miterlimit="10" width="29" height="29"/>
		<rect x="46.5" y="5.5" display="inline" fill="#FFFFFF" stroke="#000000" stroke-miterlimit="10" width="29" height="28"/>
	</g>
	<g id="c-d">
		<rect x="0.5" y="0.5" display="inline" fill="#CCCCCC" stroke="#000000" stroke-miterlimit="10" width="81" height="73"/>
		<rect x="6.5" y="6.5" display="inline" fill="#FFFFFF" stroke="#000000" stroke-miterlimit="10" width="69" height="30"/>
		<rect x="45.5" y="44.5" display="inline" fill="#FFFFFF" stroke="#000000" stroke-miterlimit="10" width="30" height="24"/>
		<rect x="6.5" y="44.5" display="inline" fill="#FFFFFF" stroke="#000000" stroke-miterlimit="10" width="31" height="24"/>
	</g>
	<g id="e">
		<rect x="0.5" y="0.5" display="inline" fill="#CCCCCC" stroke="#000000" stroke-miterlimit="10" width="81" height="73"/>
		<rect x="6.5" y="6.5" display="inline" fill="#FFFFFF" stroke="#000000" stroke-miterlimit="10" width="69" height="16"/>
		<rect x="6.5" y="28.5" display="inline" fill="#FFFFFF" stroke="#000000" stroke-miterlimit="10" width="69" height="16"/>
		<rect x="6.5" y="50.5" display="inline" fill="#FFFFFF" stroke="#000000" stroke-miterlimit="10" width="69" height="16"/>
	</g>
	<g id="f">
		<rect x="0.5" y="0.5" display="inline" fill="#CCCCCC" stroke="#000000" stroke-miterlimit="10" width="81" height="73"/>
		<rect x="56.5" y="6.5" display="inline" fill="#FFFFFF" stroke="#000000" stroke-miterlimit="10" width="18" height="61"/>
		<rect x="32.5" y="6.5" display="inline" fill="#FFFFFF" stroke="#000000" stroke-miterlimit="10" width="18" height="61"/>
		<rect x="7.5" y="6.5" display="inline" fill="#FFFFFF" stroke="#000000" stroke-miterlimit="10" width="18" height="61"/>
	</g>
</g>
<g id="_x34_" display="none">
	<g id="a_2_">
		<rect x="0.5" y="0.5" display="inline" fill="#CCCCCC" stroke="#000000" stroke-miterlimit="10" width="81" height="73"/>
		<rect x="44.5" y="6.5" display="inline" fill="#FFFFFF" stroke="#000000" stroke-miterlimit="10" width="13" height="61"/>
		<rect x="25.5" y="6.5" display="inline" fill="#FFFFFF" stroke="#000000" stroke-miterlimit="10" width="13" height="61"/>
		<rect x="6.5" y="6.5" display="inline" fill="#FFFFFF" stroke="#000000" stroke-miterlimit="10" width="13" height="61"/>
		<rect x="63.5" y="6.5" display="inline" fill="#FFFFFF" stroke="#000000" stroke-miterlimit="10" width="12" height="61"/>
	</g>
	<g id="b_2_">
		<rect x="0.5" y="0.5" display="inline" fill="#CCCCCC" stroke="#000000" stroke-miterlimit="10" width="81" height="73"/>
		<rect x="7.5" y="39.5" display="inline" fill="#FFFFFF" stroke="#000000" stroke-miterlimit="10" width="67" height="12"/>
		<rect x="7.5" y="22.5" display="inline" fill="#FFFFFF" stroke="#000000" stroke-miterlimit="10" width="67" height="12"/>
		<rect x="7.5" y="5.5" display="inline" fill="#FFFFFF" stroke="#000000" stroke-miterlimit="10" width="67" height="12"/>
		<rect x="7.5" y="56.5" display="inline" fill="#FFFFFF" stroke="#000000" stroke-miterlimit="10" width="67" height="12"/>
	</g>
	<g id="c">
		<rect x="-0.5" y="0.5" display="inline" fill="#CCCCCC" stroke="#000000" stroke-miterlimit="10" width="82" height="73"/>
		<rect x="45.5" y="6.5" display="inline" fill="#FFFFFF" stroke="#000000" stroke-miterlimit="10" width="29" height="27"/>
		<rect x="5.5" y="6.5" display="inline" fill="#FFFFFF" stroke="#000000" stroke-miterlimit="10" width="32" height="27"/>
		<rect x="45.5" y="40.5" display="inline" fill="#FFFFFF" stroke="#000000" stroke-miterlimit="10" width="29" height="27"/>
		<rect x="5.5" y="40.5" display="inline" fill="#FFFFFF" stroke="#000000" stroke-miterlimit="10" width="32" height="27"/>
	</g>
	<g id="d">
		<rect x="0.5" y="0.5" display="inline" fill="#CCCCCC" stroke="#000000" stroke-miterlimit="10" width="81" height="73"/>
		<rect x="6.5" y="6.5" display="inline" fill="#FFFFFF" stroke="#000000" stroke-miterlimit="10" width="32" height="16"/>
		<rect x="6.5" y="28.5" display="inline" fill="#FFFFFF" stroke="#000000" stroke-miterlimit="10" width="69" height="16"/>
		<rect x="6.5" y="50.5" display="inline" fill="#FFFFFF" stroke="#000000" stroke-miterlimit="10" width="69" height="16"/>
		<rect x="44.5" y="6.5" display="inline" fill="#FFFFFF" stroke="#000000" stroke-miterlimit="10" width="31" height="16"/>
	</g>
	<g id="e_1_">
		<rect x="0.5" y="0.5" display="inline" fill="#CCCCCC" stroke="#000000" stroke-miterlimit="10" width="81" height="73"/>
		<rect x="57.5" y="6.5" display="inline" fill="#FFFFFF" stroke="#000000" stroke-miterlimit="10" width="18" height="19"/>
		<rect x="31.5" y="6.5" display="inline" fill="#FFFFFF" stroke="#000000" stroke-miterlimit="10" width="20" height="19"/>
		<rect x="6.5" y="6.5" display="inline" fill="#FFFFFF" stroke="#000000" stroke-miterlimit="10" width="19" height="19"/>
		<rect x="6.5" y="31.5" display="inline" fill="#FFFFFF" stroke="#000000" stroke-miterlimit="10" width="69" height="37"/>
	</g>
	<g id="f-g">
		<rect x="0.5" y="0.5" display="inline" fill="#CCCCCC" stroke="#000000" stroke-miterlimit="10" width="81" height="73"/>
		<rect x="56.5" y="34.5" display="inline" fill="#FFFFFF" stroke="#000000" stroke-miterlimit="10" width="18" height="33"/>
		<rect x="56.5" y="6.5" display="inline" fill="#FFFFFF" stroke="#000000" stroke-miterlimit="10" width="18" height="22"/>
		<rect x="7.5" y="6.5" display="inline" fill="#FFFFFF" stroke="#000000" stroke-miterlimit="10" width="18" height="61"/>
		<rect x="31.5" y="6.5" display="inline" fill="#FFFFFF" stroke="#000000" stroke-miterlimit="10" width="18" height="61"/>
	</g>
	<g id="h">
		<rect x="0.5" y="0.5" display="inline" fill="#CCCCCC" stroke="#000000" stroke-miterlimit="10" width="81" height="73"/>
		<rect x="56.5" y="6.5" display="inline" fill="#FFFFFF" stroke="#000000" stroke-miterlimit="10" width="18" height="61"/>
		<rect x="32.5" y="6.5" display="inline" fill="#FFFFFF" stroke="#000000" stroke-miterlimit="10" width="18" height="22"/>
		<rect x="7.5" y="6.5" display="inline" fill="#FFFFFF" stroke="#000000" stroke-miterlimit="10" width="18" height="61"/>
		<rect x="32.5" y="34.5" display="inline" fill="#FFFFFF" stroke="#000000" stroke-miterlimit="10" width="18" height="33"/>
	</g>
</g>
<g id="_x35_">
	<g id="a_3_" display="none">
		<rect x="0.5" y="0.5" display="inline" fill="#CCCCCC" stroke="#000000" stroke-miterlimit="10" width="81" height="73"/>
		<rect x="44.5" y="6.5" display="inline" fill="#FFFFFF" stroke="#000000" stroke-miterlimit="10" width="13" height="20"/>
		<rect x="24.5" y="6.5" display="inline" fill="#FFFFFF" stroke="#000000" stroke-miterlimit="10" width="14" height="20"/>
		<rect x="5.5" y="6.5" display="inline" fill="#FFFFFF" stroke="#000000" stroke-miterlimit="10" width="15" height="20"/>
		<rect x="62.5" y="6.5" display="inline" fill="#FFFFFF" stroke="#000000" stroke-miterlimit="10" width="14" height="20"/>
		<rect x="5.5" y="32.5" display="inline" fill="#FFFFFF" stroke="#000000" stroke-miterlimit="10" width="71" height="35"/>
	</g>
	<g id="b_3_" display="none">
		<rect x="0.5" y="0.5" display="inline" fill="#CCCCCC" stroke="#000000" stroke-miterlimit="10" width="81" height="73"/>
		<rect x="44.5" y="47.5" display="inline" fill="#FFFFFF" stroke="#000000" stroke-miterlimit="10" width="13" height="20"/>
		<rect x="24.5" y="47.5" display="inline" fill="#FFFFFF" stroke="#000000" stroke-miterlimit="10" width="14" height="20"/>
		<rect x="5.5" y="47.5" display="inline" fill="#FFFFFF" stroke="#000000" stroke-miterlimit="10" width="15" height="20"/>
		<rect x="62.5" y="47.5" display="inline" fill="#FFFFFF" stroke="#000000" stroke-miterlimit="10" width="14" height="20"/>
		<rect x="5.5" y="6.5" display="inline" fill="#FFFFFF" stroke="#000000" stroke-miterlimit="10" width="71" height="35"/>
	</g>
	<g id="c_1_" display="none">
		<rect x="0.5" y="0.5" display="inline" fill="#CCCCCC" stroke="#000000" stroke-miterlimit="10" width="81" height="73"/>
		<rect x="24.5" y="6.5" display="inline" fill="#FFFFFF" stroke="#000000" stroke-miterlimit="10" width="34" height="61"/>
		<rect x="5.5" y="6.5" display="inline" fill="#FFFFFF" stroke="#000000" stroke-miterlimit="10" width="14" height="20"/>
		<rect x="62.5" y="6.5" display="inline" fill="#FFFFFF" stroke="#000000" stroke-miterlimit="10" width="14" height="20"/>
		<rect x="5.5" y="32.5" display="inline" fill="#FFFFFF" stroke="#000000" stroke-miterlimit="10" width="14" height="35"/>
		<rect x="62.5" y="32.5" display="inline" fill="#FFFFFF" stroke="#000000" stroke-miterlimit="10" width="14" height="35"/>
	</g>
	<g id="d_1_" display="none">
		<rect x="0.5" y="0.5" display="inline" fill="#CCCCCC" stroke="#000000" stroke-miterlimit="10" width="81" height="73"/>
		<rect x="24.5" y="32.5" display="inline" fill="#FFFFFF" stroke="#000000" stroke-miterlimit="10" width="34" height="35"/>
		<rect x="5.5" y="6.5" display="inline" fill="#FFFFFF" stroke="#000000" stroke-miterlimit="10" width="14" height="61"/>
		<rect x="63.5" y="6.5" display="inline" fill="#FFFFFF" stroke="#000000" stroke-miterlimit="10" width="13" height="61"/>
		<rect x="24.5" y="6.5" display="inline" fill="#FFFFFF" stroke="#000000" stroke-miterlimit="10" width="15" height="20"/>
		<rect x="43.5" y="6.5" display="inline" fill="#FFFFFF" stroke="#000000" stroke-miterlimit="10" width="15" height="20"/>
	</g>
	<g id="e_2_" display="none">
		<rect x="0.5" y="0.5" display="inline" fill="#CCCCCC" stroke="#000000" stroke-miterlimit="10" width="81" height="73"/>
		<rect x="24.5" y="6.5" display="inline" fill="#FFFFFF" stroke="#000000" stroke-miterlimit="10" width="34" height="35"/>
		<rect x="5.5" y="6.5" display="inline" fill="#FFFFFF" stroke="#000000" stroke-miterlimit="10" width="14" height="61"/>
		<rect x="63.5" y="6.5" display="inline" fill="#FFFFFF" stroke="#000000" stroke-miterlimit="10" width="13" height="61"/>
		<rect x="24.5" y="47.5" display="inline" fill="#FFFFFF" stroke="#000000" stroke-miterlimit="10" width="15" height="20"/>
		<rect x="43.5" y="47.5" display="inline" fill="#FFFFFF" stroke="#000000" stroke-miterlimit="10" width="15" height="20"/>
	</g>
	<rect x="0.5" y="0.5" fill="#CCCCCC" stroke="#000000" stroke-miterlimit="10" width="81" height="73"/>
	<rect x="34.5" y="6.5" fill="#FFFFFF" stroke="#000000" stroke-miterlimit="10" width="11" height="18"/>
	<rect x="20.5" y="6.5" fill="#FFFFFF" stroke="#000000" stroke-miterlimit="10" width="12" height="18"/>
	<rect x="5.5" y="6.5" fill="#FFFFFF" stroke="#000000" stroke-miterlimit="10" width="11" height="18"/>
	<rect x="49.5" y="6.5" fill="#FFFFFF" stroke="#000000" stroke-miterlimit="10" width="12" height="18"/>
	<rect x="64.5" y="6.5" fill="#FFFFFF" stroke="#000000" stroke-miterlimit="10" width="11" height="18"/>
	<rect x="5.5" y="31.5" fill="#FFFFFF" stroke="#000000" stroke-miterlimit="10" width="70" height="37"/>
</g>
</svg>
