<?xml version="1.0" encoding="utf-8"?>
<!-- Generator: Adobe Illustrator 16.0.0, SVG Export Plug-In . SVG Version: 6.00 Build 0)  -->
<!DOCTYPE svg PUBLIC "-//W3C//DTD SVG 1.1//EN" "http://www.w3.org/Graphics/SVG/1.1/DTD/svg11.dtd">
<svg version="1.1" id="Layer_1" xmlns="http://www.w3.org/2000/svg" xmlns:xlink="http://www.w3.org/1999/xlink" x="0px" y="0px"
	 width="35.914px" height="35.963px" viewBox="0 0 35.914 35.963" enable-background="new 0 0 35.914 35.963" xml:space="preserve">
<rect x="-0.019" fill="none" width="36" height="36"/>
<polygon display="none" fill="#CCCCCC" points="35.889,35.963 -0.019,36 17.922,-0.02 "/>
</svg>
