<?xml version="1.0" encoding="utf-8"?>
<!-- Generator: Adobe Illustrator 16.0.0, SVG Export Plug-In . SVG Version: 6.00 Build 0)  -->
<!DOCTYPE svg PUBLIC "-//W3C//DTD SVG 1.1//EN" "http://www.w3.org/Graphics/SVG/1.1/DTD/svg11.dtd">
<svg version="1.1" id="Layer_1" xmlns="http://www.w3.org/2000/svg" xmlns:xlink="http://www.w3.org/1999/xlink" x="0px" y="0px"
	 width="82.125px" height="74.125px" viewBox="0 0 82.125 74.125" enable-background="new 0 0 82.125 74.125" xml:space="preserve">
<g id="_x31_">
	<rect x="0.5" y="0.5" fill="#CCCCCC" stroke="#000000" stroke-miterlimit="10" width="81" height="73"/>
	<rect x="6.5" y="5.5" fill="#FFFFFF" stroke="#000000" stroke-miterlimit="10" width="69" height="63"/>
</g>
</svg>
